 
                        Please contact us via our
                            support center for more information and provide the details below.
                     
                            Reference Number: 7b00228c0bd389e2
                         
                            IP Address: 152.57.241.1
                         Timestamp: You do not have access to www.sciencedirect.com. The site owner may have set restrictions that prevent you from accessing the site. 
About ScienceDirect
Shopping cart
Contact and
                                supportTerms and
                                conditionsPrivacy policy We use cookies to help provide and enhance our service and tailor content and ads. By continuing you agree to the
                        use of
                                cookies. Copyright ©
                        2020
                        Elsevier B.V. or its licensors or contributors. ScienceDirect ® is a registered trademark of Elsevier B.V. 
                        Please contact us via our
                            support center for more information and provide the details below.
                     
                            Reference Number: 7b00228f8fb989fc
                         
                            IP Address: 152.57.241.1
                         Timestamp: You do not have access to www.sciencedirect.com. The site owner may have set restrictions that prevent you from accessing the site. 
About ScienceDirect
Shopping cart
Contact and
                                supportTerms and
                                conditionsPrivacy policy We use cookies to help provide and enhance our service and tailor content and ads. By continuing you agree to the
                        use of
                                cookies. Copyright ©
                        2020
                        Elsevier B.V. or its licensors or contributors. ScienceDirect ® is a registered trademark of Elsevier B.V. 
                        Please contact us via our
                            support center for more information and provide the details below.
                     
                            Reference Number: 7b00229358d58afd
                         
                            IP Address: 152.57.241.1
                         Timestamp: You do not have access to www.sciencedirect.com. The site owner may have set restrictions that prevent you from accessing the site. 
About ScienceDirect
Shopping cart
Contact and
                                supportTerms and
                                conditionsPrivacy policy We use cookies to help provide and enhance our service and tailor content and ads. By continuing you agree to the
                        use of
                                cookies. Copyright ©
                        2020
                        Elsevier B.V. or its licensors or contributors. ScienceDirect ® is a registered trademark of Elsevier B.V. 
                        Please contact us via our
                            support center for more information and provide the details below.
                     
                            Reference Number: 7b002298cdc08af4
                         
                            IP Address: 152.57.241.1
                         Timestamp: You do not have access to www.sciencedirect.com. The site owner may have set restrictions that prevent you from accessing the site. 
About ScienceDirect
Shopping cart
Contact and
                                supportTerms and
                                conditionsPrivacy policy We use cookies to help provide and enhance our service and tailor content and ads. By continuing you agree to the
                        use of
                                cookies. Copyright ©
                        2020
                        Elsevier B.V. or its licensors or contributors. ScienceDirect ® is a registered trademark of Elsevier B.V. 
                        Please contact us via our
                            support center for more information and provide the details below.
                     
                            Reference Number: 7b00229bdece8a08
                         
                            IP Address: 152.57.241.1
                         Timestamp: You do not have access to www.sciencedirect.com. The site owner may have set restrictions that prevent you from accessing the site. 
About ScienceDirect
Shopping cart
Contact and
                                supportTerms and
                                conditionsPrivacy policy We use cookies to help provide and enhance our service and tailor content and ads. By continuing you agree to the
                        use of
                                cookies. Copyright ©
                        2020
                        Elsevier B.V. or its licensors or contributors. ScienceDirect ® is a registered trademark of Elsevier B.V. 
                        Please contact us via our
                            support center for more information and provide the details below.
                     
                            Reference Number: 7b0022a01c1489e2
                         
                            IP Address: 152.57.241.1
                         Timestamp: You do not have access to www.sciencedirect.com. The site owner may have set restrictions that prevent you from accessing the site. 
About ScienceDirect
Shopping cart
Contact and
                                supportTerms and
                                conditionsPrivacy policy We use cookies to help provide and enhance our service and tailor content and ads. By continuing you agree to the
                        use of
                                cookies. Copyright ©
                        2020
                        Elsevier B.V. or its licensors or contributors. ScienceDirect ® is a registered trademark of Elsevier B.V. 
                        Please contact us via our
                            support center for more information and provide the details below.
                     
                            Reference Number: 7b0022a38ea089fc
                         
                            IP Address: 152.57.241.1
                         Timestamp: You do not have access to www.sciencedirect.com. The site owner may have set restrictions that prevent you from accessing the site. 
About ScienceDirect
Shopping cart
Contact and
                                supportTerms and
                                conditionsPrivacy policy We use cookies to help provide and enhance our service and tailor content and ads. By continuing you agree to the
                        use of
                                cookies. Copyright ©
                        2020
                        Elsevier B.V. or its licensors or contributors. ScienceDirect ® is a registered trademark of Elsevier B.V. 
                        Please contact us via our
                            support center for more information and provide the details below.
                     
                            Reference Number: 7b0022a70b798a26
                         
                            IP Address: 152.57.241.1
                         Timestamp: You do not have access to www.sciencedirect.com. The site owner may have set restrictions that prevent you from accessing the site. 
About ScienceDirect
Shopping cart
Contact and
                                supportTerms and
                                conditionsPrivacy policy We use cookies to help provide and enhance our service and tailor content and ads. By continuing you agree to the
                        use of
                                cookies. Copyright ©
                        2020
                        Elsevier B.V. or its licensors or contributors. ScienceDirect ® is a registered trademark of Elsevier B.V. 
                        Please contact us via our
                            support center for more information and provide the details below.
                     
                            Reference Number: 7b0022ab59428a1a
                         
                            IP Address: 152.57.241.1
                         Timestamp: You do not have access to www.sciencedirect.com. The site owner may have set restrictions that prevent you from accessing the site. 
About ScienceDirect
Shopping cart
Contact and
                                supportTerms and
                                conditionsPrivacy policy We use cookies to help provide and enhance our service and tailor content and ads. By continuing you agree to the
                        use of
                                cookies. Copyright ©
                        2020
                        Elsevier B.V. or its licensors or contributors. ScienceDirect ® is a registered trademark of Elsevier B.V.